{
  "city": {
    "type": "str",
    "value": "Tombstone"
  },
  "year": {
    "type": "int",
    "value": 1881
  },
  "wyatt_earp": {
    "module": "wide_wild_west.data",
    "class": "Person",
    "parameters": [
      {
        "name": "first_name",
        "type": "str",
        "value": "Wyatt"
      },
      {
        "name": "last_name",
        "type": "str",
        "value": "EARP"
      },
      {
        "name": "birth_date",
        "type": "date",
        "format": "%d/%m/%Y",
        "value": "19/03/1848"
      },
      {
        "name": "death_date",
        "type": "date",
        "format": "%d/%m/%Y",
        "value": "13/01/1929"
      },
      {
        "name": "guns",
        "type": "list",
        "value": [
          {
            "type": "ref",
            "value": "colt_saa_1873"
          }
        ]
      }
    ],
    "properties": {
      "middle_name": {
        "type": "str",
        "value": "Berry Stapp"
      },
      "height": {
        "type": "float",
        "value": 1.83
      },
      "weight": {
        "type": "int",
        "value": 75
      }
    }
  },
  "virgil_earp": {
    "module": "wide_wild_west.data",
    "class": "Person",
    "parameters": [
      {
        "name": "first_name",
        "type": "str",
        "value": "Virgil"
      },
      {
        "name": "last_name",
        "type": "str",
        "value": "EARP"
      },
      {
        "name": "birth_date",
        "type": "date",
        "format": "%d/%m/%Y",
        "value": "18/07/1843"
      },
      {
        "name": "death_date",
        "type": "date",
        "format": "%d/%m/%Y",
        "value": "19/10/1905"
      }
    ],
    "properties": {
      "middle_name": {
        "type": "str",
        "value": "Walter"
      }
    }
  },
  "doc_holliday": {
    "module": "wide_wild_west.data",
    "class": "Person",
    "parameters": [
      {
        "name": "first_name",
        "type": "str",
        "value": "John"
      },
      {
        "name": "last_name",
        "type": "str",
        "value": "HOLLIDAY"
      },
      {
        "name": "birth_date",
        "type": "date",
        "value": "1851-08-14"
      },
      {
        "name": "death_date",
        "type": "date",
        "format": "%d/%m/%Y",
        "value": "06/11/1887"
      },
      {
        "name": "guns",
        "type": "list",
        "value": [
          {
            "type": "ref",
            "value": "remington_model_95"
          },
          {
            "type": "ref",
            "value": "colt_1851_navy"
          }
        ]
      }
    ],
    "properties": {
      "middle_name": {
        "type": "str",
        "value": "Henry"
      }
    }
  },
  "morgan_earp": {
    "module": "wide_wild_west.data",
    "class": "Person",
    "parameters": [
      {
        "name": "first_name",
        "type": "str",
        "value": "Mogan"
      },
      {
        "name": "last_name",
        "type": "str",
        "value": "EARP"
      },
      {
        "name": "birth_date",
        "type": "date",
        "format": "%d/%m/%Y",
        "value": "24/04/1851"
      },
      {
        "name": "death_date",
        "type": "date",
        "format": "%d/%m/%Y",
        "value": "18/03/1882"
      }
    ],
    "properties": {
      "middle_name": {
        "type": "str",
        "value": "Seth"
      }
    }
  },
  "tombstone_police": {
    "module": "wide_wild_west.data",
    "class": "Posse",
    "parameters": [
      {
        "name": "members",
        "type": "list",
        "value": [
          {
            "type": "ref",
            "value": "wyatt_earp"
          },
          {
            "type": "ref",
            "value": "morgan_earp"
          },
          {
            "type": "ref",
            "value": "virgil_earp"
          },
          {
            "type": "ref",
            "value": "doc_holliday"
          }
        ]
      }
    ]
  },
  "include": [
    "**/*guns.json",
    "samples/guns/rif*"
  ]
}